----------------------------------------------------------------------------------------------------------
----------------------------------------------------------------------------------------------------------
2016-03-24 14:44:44 +0000 | [Call made by:	User Replies]
2016-03-24 14:44:44 +0000 | [X-RateLimit		]
2016-03-24 14:44:44 +0000 | 			x-rate-limit-remaining : 12
----------------------------------------------------------------------------------------------------------
2016-03-24 14:44:44 +0000 | [Call made by:	User Timeline]
2016-03-24 14:44:44 +0000 | [X-RateLimit		]
2016-03-24 14:44:44 +0000 | 			x-rate-limit-remaining : 177
----------------------------------------------------------------------------------------------------------
2016-03-24 14:44:44 +0000 | [Call made by:	Get Messages]
2016-03-24 14:44:44 +0000 | [X-RateLimit		]
2016-03-24 14:44:44 +0000 | 			x-rate-limit-remaining : 12
----------------------------------------------------------------------------------------------------------
2016-03-24 14:44:45 +0000 | [Call made by:	Get Message Replies]
2016-03-24 14:44:45 +0000 | [X-RateLimit		]
2016-03-24 14:44:45 +0000 | 			x-rate-limit-remaining : 12
2016-03-24 14:44:45 +0000 | Manual search by account finished. Account id:a2Cb0000000gqkVEAQ, Search Results: [Cases = 0, Contacts = 0, Conversations = 0, Leads = 0, Person Accounts = 0]
----------------------------------------------------------------------------------------------------------
----------------------------------------------------------------------------------------------------------
2016-03-24 14:44:27 +0000 | [Call made by:	User Replies]
2016-03-24 14:44:27 +0000 | [X-RateLimit		]
2016-03-24 14:44:27 +0000 | 			x-rate-limit-remaining : 13
----------------------------------------------------------------------------------------------------------
2016-03-24 14:44:28 +0000 | [Call made by:	User Timeline]
2016-03-24 14:44:28 +0000 | [X-RateLimit		]
2016-03-24 14:44:28 +0000 | 			x-rate-limit-remaining : 178
----------------------------------------------------------------------------------------------------------
2016-03-24 14:44:29 +0000 | [Call made by:	Get Messages]
2016-03-24 14:44:29 +0000 | [X-RateLimit		]
2016-03-24 14:44:29 +0000 | 			x-rate-limit-remaining : 13
----------------------------------------------------------------------------------------------------------
2016-03-24 14:44:30 +0000 | [Call made by:	Get Message Replies]
2016-03-24 14:44:30 +0000 | [X-RateLimit		]
2016-03-24 14:44:30 +0000 | 			x-rate-limit-remaining : 13
2016-03-24 14:44:42 +0000 | Manual search by account finished. Account id:a2Cb0000000gqkVEAQ, Search Results: [Cases = 0, Contacts = 0, Conversations = 66, Leads = 0, Person Accounts = 0]
----------------------------------------------------------------------------------------------------------
----------------------------------------------------------------------------------------------------------
2016-03-24 14:44:02 +0000 | [Call made by:	User Replies]
2016-03-24 14:44:02 +0000 | [X-RateLimit		]
2016-03-24 14:44:02 +0000 | 			x-rate-limit-remaining : 14
----------------------------------------------------------------------------------------------------------
2016-03-24 14:44:03 +0000 | [Call made by:	User Timeline]
2016-03-24 14:44:03 +0000 | [X-RateLimit		]
2016-03-24 14:44:03 +0000 | 			x-rate-limit-remaining : 179
----------------------------------------------------------------------------------------------------------
2016-03-24 14:44:05 +0000 | [Call made by:	Get Messages]
2016-03-24 14:44:05 +0000 | [X-RateLimit		]
2016-03-24 14:44:05 +0000 | 			x-rate-limit-remaining : 14
----------------------------------------------------------------------------------------------------------
2016-03-24 14:44:06 +0000 | [Call made by:	Get Message Replies]
2016-03-24 14:44:06 +0000 | [X-RateLimit		]
2016-03-24 14:44:06 +0000 | 			x-rate-limit-remaining : 14
2016-03-24 14:44:25 +0000 | Manual search by account finished. Account id:a2Cb0000000gqkVEAQ, Search Results: [Cases = 0, Contacts = 0, Conversations = 270, Leads = 0, Person Accounts = 0]
----------------------------------------------------------------------------------------------------------
2016-03-04 10:02:05 +0000 | [Call made by:	postUpdateOauth]
2016-03-04 10:02:05 +0000 | [X-RateLimit		]
----------------------------------------------------------------------------------------------------------
2016-03-04 10:02:10 +0000 | Outbound reply sent by Twitter Account Id: a2Cb0000000gqkVEAQ, User Id: 005b0000001QEFpAAO, Conversation Id: a2Fb0000000xFicEAE
----------------------------------------------------------------------------------------------------------
2016-03-04 09:43:32 +0000 | [Call made by:	postDirectMessageOauth]
2016-03-04 09:43:32 +0000 | [X-RateLimit		]
----------------------------------------------------------------------------------------------------------
2016-03-04 09:43:38 +0000 | Outbound Direct Message sent by Twitter Account Id: a2Cb0000000gqkVEAQ, User Id: 005b0000001QEFpAAO, Conversation Id: a2Fb0000000xFi8EAE
----------------------------------------------------------------------------------------------------------
----------------------------------------------------------------------------------------------------------
2016-03-04 09:38:20 +0000 | [Call made by:	User Replies]
2016-03-04 09:38:20 +0000 | [X-RateLimit		]
2016-03-04 09:38:20 +0000 | 			x-rate-limit-remaining : 13
----------------------------------------------------------------------------------------------------------
2016-03-04 09:38:20 +0000 | [Call made by:	User Timeline]
2016-03-04 09:38:20 +0000 | [X-RateLimit		]
2016-03-04 09:38:20 +0000 | 			x-rate-limit-remaining : 178
----------------------------------------------------------------------------------------------------------
2016-03-04 09:38:21 +0000 | [Call made by:	Get Messages]
2016-03-04 09:38:21 +0000 | [X-RateLimit		]
2016-03-04 09:38:21 +0000 | 			x-rate-limit-remaining : 13
----------------------------------------------------------------------------------------------------------
2016-03-04 09:38:22 +0000 | [Call made by:	Get Message Replies]
2016-03-04 09:38:22 +0000 | [X-RateLimit		]
2016-03-04 09:38:22 +0000 | 			x-rate-limit-remaining : 13
2016-03-04 09:38:23 +0000 | Manual search by account finished. Account id:a2Cb0000000gqkVEAQ, Search Results: [Cases = 0, Contacts = 0, Conversations = 0, Leads = 0, Person Accounts = 0]
----------------------------------------------------------------------------------------------------------
----------------------------------------------------------------------------------------------------------
2016-03-04 09:38:03 +0000 | [Call made by:	User Replies]
2016-03-04 09:38:03 +0000 | [X-RateLimit		]
2016-03-04 09:38:03 +0000 | 			x-rate-limit-remaining : 14
----------------------------------------------------------------------------------------------------------
2016-03-04 09:38:03 +0000 | [Call made by:	User Timeline]
2016-03-04 09:38:03 +0000 | [X-RateLimit		]
2016-03-04 09:38:03 +0000 | 			x-rate-limit-remaining : 179
----------------------------------------------------------------------------------------------------------
2016-03-04 09:38:04 +0000 | [Call made by:	Get Messages]
2016-03-04 09:38:04 +0000 | [X-RateLimit		]
2016-03-04 09:38:04 +0000 | 			x-rate-limit-remaining : 14
----------------------------------------------------------------------------------------------------------
2016-03-04 09:38:05 +0000 | [Call made by:	Get Message Replies]
2016-03-04 09:38:05 +0000 | [X-RateLimit		]
2016-03-04 09:38:05 +0000 | 			x-rate-limit-remaining : 14
2016-03-04 09:38:19 +0000 | Manual search by account finished. Account id:a2Cb0000000gqkVEAQ, Search Results: [Cases = 0, Contacts = 0, Conversations = 1, Leads = 0, Person Accounts = 0]
----------------------------------------------------------------------------------------------------------
----------------------------------------------------------------------------------------------------------
2016-03-04 09:13:32 +0000 | [Call made by:	User Replies]
2016-03-04 09:13:32 +0000 | [X-RateLimit		]
2016-03-04 09:13:32 +0000 | 			x-rate-limit-remaining : 13
----------------------------------------------------------------------------------------------------------
2016-03-04 09:13:33 +0000 | [Call made by:	User Timeline]
2016-03-04 09:13:33 +0000 | [X-RateLimit		]
2016-03-04 09:13:33 +0000 | 			x-rate-limit-remaining : 178
----------------------------------------------------------------------------------------------------------
2016-03-04 09:13:34 +0000 | [Call made by:	Get Messages]
2016-03-04 09:13:34 +0000 | [X-RateLimit		]
2016-03-04 09:13:34 +0000 | 			x-rate-limit-remaining : 13
----------------------------------------------------------------------------------------------------------
2016-03-04 09:13:34 +0000 | [Call made by:	Get Message Replies]
2016-03-04 09:13:34 +0000 | [X-RateLimit		]
2016-03-04 09:13:34 +0000 | 			x-rate-limit-remaining : 13
2016-03-04 09:13:35 +0000 | Manual search by account finished. Account id:a2Cb0000000gqkVEAQ, Search Results: [Cases = 0, Contacts = 0, Conversations = 0, Leads = 0, Person Accounts = 0]
----------------------------------------------------------------------------------------------------------
----------------------------------------------------------------------------------------------------------
2016-03-04 09:11:26 +0000 | [Call made by:	User Replies]
2016-03-04 09:11:26 +0000 | [X-RateLimit		]
2016-03-04 09:11:26 +0000 | 			x-rate-limit-remaining : 14
----------------------------------------------------------------------------------------------------------
2016-03-04 09:11:27 +0000 | [Call made by:	User Timeline]
2016-03-04 09:11:27 +0000 | [X-RateLimit		]
2016-03-04 09:11:27 +0000 | 			x-rate-limit-remaining : 179
----------------------------------------------------------------------------------------------------------
2016-03-04 09:11:28 +0000 | [Call made by:	Get Messages]
2016-03-04 09:11:28 +0000 | [X-RateLimit		]
2016-03-04 09:11:28 +0000 | 			x-rate-limit-remaining : 14
----------------------------------------------------------------------------------------------------------
2016-03-04 09:11:29 +0000 | [Call made by:	Get Message Replies]
2016-03-04 09:11:29 +0000 | [X-RateLimit		]
2016-03-04 09:11:29 +0000 | 			x-rate-limit-remaining : 14
2016-03-04 09:13:30 +0000 | Manual search by account finished. Account id:a2Cb0000000gqkVEAQ, Search Results: [Cases = 0, Contacts = 0, Conversations = 69, Leads = 0, Person Accounts = 0]
----------------------------------------------------------------------------------------------------------
----------------------------------------------------------------------------------------------------------
2016-02-29 11:26:17 +0000 | [Call made by:	User Replies]
2016-02-29 11:26:17 +0000 | [X-RateLimit		]
2016-02-29 11:26:17 +0000 | 			x-rate-limit-remaining : 13
----------------------------------------------------------------------------------------------------------
2016-02-29 11:26:17 +0000 | [Call made by:	User Timeline]
2016-02-29 11:26:17 +0000 | [X-RateLimit		]
2016-02-29 11:26:17 +0000 | 			x-rate-limit-remaining : 178
----------------------------------------------------------------------------------------------------------
2016-02-29 11:26:18 +0000 | [Call made by:	Get Messages]
2016-02-29 11:26:18 +0000 | [X-RateLimit		]
2016-02-29 11:26:18 +0000 | 			x-rate-limit-remaining : 13
----------------------------------------------------------------------------------------------------------
2016-02-29 11:26:19 +0000 | [Call made by:	Get Message Replies]
2016-02-29 11:26:19 +0000 | [X-RateLimit		]
2016-02-29 11:26:19 +0000 | 			x-rate-limit-remaining : 13
2016-02-29 11:26:29 +0000 | Manual search by account finished. Account id:a2Cb0000000gqkVEAQ, Search Results: [Cases = 0, Contacts = 0, Conversations = 86, Leads = 0, Person Accounts = 0]
----------------------------------------------------------------------------------------------------------
----------------------------------------------------------------------------------------------------------
2016-02-29 11:24:08 +0000 | [Call made by:	User Replies]
2016-02-29 11:24:08 +0000 | [X-RateLimit		]
2016-02-29 11:24:08 +0000 | 			x-rate-limit-remaining : 14
----------------------------------------------------------------------------------------------------------
2016-02-29 11:24:08 +0000 | [Call made by:	User Timeline]
2016-02-29 11:24:08 +0000 | [X-RateLimit		]
2016-02-29 11:24:08 +0000 | 			x-rate-limit-remaining : 179
----------------------------------------------------------------------------------------------------------
2016-02-29 11:24:09 +0000 | [Call made by:	Get Messages]
2016-02-29 11:24:09 +0000 | [X-RateLimit		]
2016-02-29 11:24:09 +0000 | 			x-rate-limit-remaining : 14
----------------------------------------------------------------------------------------------------------
2016-02-29 11:24:10 +0000 | [Call made by:	Get Message Replies]
2016-02-29 11:24:10 +0000 | [X-RateLimit		]
2016-02-29 11:24:10 +0000 | 			x-rate-limit-remaining : 14
2016-02-29 11:26:16 +0000 | Manual search by account finished. Account id:a2Cb0000000gqkVEAQ, Search Results: [Cases = 0, Contacts = 0, Conversations = 212, Leads = 0, Person Accounts = 0]
----------------------------------------------------------------------------------------------------------
2016-02-26 15:12:01 +0000 | [Call made by:	postUpdateOauth]
2016-02-26 15:12:01 +0000 | [X-RateLimit		]
----------------------------------------------------------------------------------------------------------
2016-02-26 15:12:06 +0000 | Outbound reply sent by Twitter Account Id: a2Cb0000000gqkVEAQ, User Id: 005b0000001QEFpAAO, Conversation Id: a2Fb0000000xDsTEAU
----------------------------------------------------------------------------------------------------------
----------------------------------------------------------------------------------------------------------
2016-02-26 15:10:32 +0000 | [Call made by:	User Replies]
2016-02-26 15:10:32 +0000 | [X-RateLimit		]
2016-02-26 15:10:32 +0000 | 			x-rate-limit-remaining : 14
----------------------------------------------------------------------------------------------------------
2016-02-26 15:10:32 +0000 | [Call made by:	User Timeline]
2016-02-26 15:10:32 +0000 | [X-RateLimit		]
2016-02-26 15:10:32 +0000 | 			x-rate-limit-remaining : 179
----------------------------------------------------------------------------------------------------------
2016-02-26 15:10:33 +0000 | [Call made by:	Get Messages]
2016-02-26 15:10:33 +0000 | [X-RateLimit		]
2016-02-26 15:10:33 +0000 | 			x-rate-limit-remaining : 14
----------------------------------------------------------------------------------------------------------
2016-02-26 15:10:34 +0000 | [Call made by:	Get Message Replies]
2016-02-26 15:10:34 +0000 | [X-RateLimit		]
2016-02-26 15:10:34 +0000 | 			x-rate-limit-remaining : 14
2016-02-26 15:10:35 +0000 | Manual search by account finished. Account id:a2Cb0000000gqkVEAQ, Search Results: [Cases = 0, Contacts = 0, Conversations = 0, Leads = 0, Person Accounts = 0]
----------------------------------------------------------------------------------------------------------
2016-02-26 15:09:15 +0000 | [Call made by:	postUpdateOauth]
2016-02-26 15:09:15 +0000 | [X-RateLimit		]
----------------------------------------------------------------------------------------------------------
2016-02-26 15:09:19 +0000 | Outbound reply sent by Twitter Account Id: a2Cb0000000gqkVEAQ, User Id: 005b0000001QEFpAAO, Conversation Id: a2Fb0000000xDsOEAU
----------------------------------------------------------------------------------------------------------
2016-02-26 14:56:10 +0000 | [Call made by:	postUpdateOauth]
2016-02-26 14:56:10 +0000 | [X-RateLimit		]
----------------------------------------------------------------------------------------------------------
2016-02-26 14:56:15 +0000 | Outbound reply sent by Twitter Account Id: a2Cb0000000gqkVEAQ, User Id: 005b0000001QEFpAAO, Conversation Id: a2Fb0000000xDrpEAE
----------------------------------------------------------------------------------------------------------
----------------------------------------------------------------------------------------------------------
2016-02-26 14:52:10 +0000 | [Call made by:	User Replies]
2016-02-26 14:52:10 +0000 | [X-RateLimit		]
2016-02-26 14:52:10 +0000 | 			x-rate-limit-remaining : 3
----------------------------------------------------------------------------------------------------------
2016-02-26 14:52:10 +0000 | [Call made by:	User Timeline]
2016-02-26 14:52:10 +0000 | [X-RateLimit		]
2016-02-26 14:52:10 +0000 | 			x-rate-limit-remaining : 168
----------------------------------------------------------------------------------------------------------
2016-02-26 14:52:11 +0000 | [Call made by:	Get Messages]
2016-02-26 14:52:11 +0000 | [X-RateLimit		]
2016-02-26 14:52:11 +0000 | 			x-rate-limit-remaining : 3
----------------------------------------------------------------------------------------------------------
2016-02-26 14:52:12 +0000 | [Call made by:	Get Message Replies]
2016-02-26 14:52:12 +0000 | [X-RateLimit		]
2016-02-26 14:52:12 +0000 | 			x-rate-limit-remaining : 3
2016-02-26 14:52:12 +0000 | Manual search by account finished. Account id:a2Cb0000000gqkVEAQ, Search Results: [Cases = 0, Contacts = 0, Conversations = 0, Leads = 0, Person Accounts = 0]
----------------------------------------------------------------------------------------------------------
----------------------------------------------------------------------------------------------------------
2016-02-26 14:40:13 +0000 | [Call made by:	User Replies]
2016-02-26 14:40:13 +0000 | [X-RateLimit		]
2016-02-26 14:40:13 +0000 | 			x-rate-limit-remaining : 4
----------------------------------------------------------------------------------------------------------
2016-02-26 14:40:14 +0000 | [Call made by:	User Timeline]
2016-02-26 14:40:14 +0000 | [X-RateLimit		]
2016-02-26 14:40:14 +0000 | 			x-rate-limit-remaining : 169
----------------------------------------------------------------------------------------------------------
2016-02-26 14:40:15 +0000 | [Call made by:	Get Messages]
2016-02-26 14:40:15 +0000 | [X-RateLimit		]
2016-02-26 14:40:15 +0000 | 			x-rate-limit-remaining : 4
----------------------------------------------------------------------------------------------------------
2016-02-26 14:40:16 +0000 | [Call made by:	Get Message Replies]
2016-02-26 14:40:16 +0000 | [X-RateLimit		]
2016-02-26 14:40:16 +0000 | 			x-rate-limit-remaining : 4
2016-02-26 14:40:16 +0000 | Manual search by account finished. Account id:a2Cb0000000gqkVEAQ, Search Results: [Cases = 0, Contacts = 0, Conversations = 0, Leads = 0, Person Accounts = 0]
----------------------------------------------------------------------------------------------------------
----------------------------------------------------------------------------------------------------------
2016-02-26 14:40:01 +0000 | [Call made by:	User Replies]
2016-02-26 14:40:01 +0000 | [X-RateLimit		]
2016-02-26 14:40:01 +0000 | 			x-rate-limit-remaining : 5
----------------------------------------------------------------------------------------------------------
2016-02-26 14:40:02 +0000 | [Call made by:	User Timeline]
2016-02-26 14:40:02 +0000 | [X-RateLimit		]
2016-02-26 14:40:02 +0000 | 			x-rate-limit-remaining : 170
----------------------------------------------------------------------------------------------------------
2016-02-26 14:40:03 +0000 | [Call made by:	Get Messages]
2016-02-26 14:40:03 +0000 | [X-RateLimit		]
2016-02-26 14:40:03 +0000 | 			x-rate-limit-remaining : 5
----------------------------------------------------------------------------------------------------------
2016-02-26 14:40:04 +0000 | [Call made by:	Get Message Replies]
2016-02-26 14:40:04 +0000 | [X-RateLimit		]
2016-02-26 14:40:04 +0000 | 			x-rate-limit-remaining : 5
2016-02-26 14:40:12 +0000 | Manual search by account finished. Account id:a2Cb0000000gqkVEAQ, Search Results: [Cases = 0, Contacts = 0, Conversations = 73, Leads = 0, Person Accounts = 0]
----------------------------------------------------------------------------------------------------------
----------------------------------------------------------------------------------------------------------
2016-02-26 14:39:47 +0000 | [Call made by:	User Replies]
2016-02-26 14:39:47 +0000 | [X-RateLimit		]
2016-02-26 14:39:47 +0000 | 			x-rate-limit-remaining : 6
----------------------------------------------------------------------------------------------------------
2016-02-26 14:39:48 +0000 | [Call made by:	User Timeline]
2016-02-26 14:39:48 +0000 | [X-RateLimit		]
2016-02-26 14:39:48 +0000 | 			x-rate-limit-remaining : 171
----------------------------------------------------------------------------------------------------------
2016-02-26 14:39:49 +0000 | [Call made by:	Get Messages]
2016-02-26 14:39:49 +0000 | [X-RateLimit		]
2016-02-26 14:39:49 +0000 | 			x-rate-limit-remaining : 6
----------------------------------------------------------------------------------------------------------
2016-02-26 14:39:50 +0000 | [Call made by:	Get Message Replies]
2016-02-26 14:39:50 +0000 | [X-RateLimit		]
2016-02-26 14:39:50 +0000 | 			x-rate-limit-remaining : 6
2016-02-26 14:40:00 +0000 | Manual search by account finished. Account id:a2Cb0000000gqkVEAQ, Search Results: [Cases = 0, Contacts = 0, Conversations = 151, Leads = 0, Person Accounts = 0]
----------------------------------------------------------------------------------------------------------
----------------------------------------------------------------------------------------------------------
2016-02-26 14:39:31 +0000 | [Call made by:	User Replies]
2016-02-26 14:39:31 +0000 | [X-RateLimit		]
2016-02-26 14:39:31 +0000 | 			x-rate-limit-remaining : 7
----------------------------------------------------------------------------------------------------------
2016-02-26 14:39:32 +0000 | [Call made by:	User Timeline]
2016-02-26 14:39:32 +0000 | [X-RateLimit		]
2016-02-26 14:39:32 +0000 | 			x-rate-limit-remaining : 172
----------------------------------------------------------------------------------------------------------
2016-02-26 14:39:32 +0000 | [Call made by:	Get Messages]
2016-02-26 14:39:32 +0000 | [X-RateLimit		]
2016-02-26 14:39:32 +0000 | 			x-rate-limit-remaining : 7
----------------------------------------------------------------------------------------------------------
2016-02-26 14:39:33 +0000 | [Call made by:	Get Message Replies]
2016-02-26 14:39:33 +0000 | [X-RateLimit		]
2016-02-26 14:39:33 +0000 | 			x-rate-limit-remaining : 7
2016-02-26 14:39:45 +0000 | Manual search by account finished. Account id:a2Cb0000000gqkVEAQ, Search Results: [Cases = 0, Contacts = 0, Conversations = 190, Leads = 0, Person Accounts = 0]
----------------------------------------------------------------------------------------------------------
----------------------------------------------------------------------------------------------------------
2016-02-26 14:39:16 +0000 | [Call made by:	User Replies]
2016-02-26 14:39:16 +0000 | [X-RateLimit		]
2016-02-26 14:39:16 +0000 | 			x-rate-limit-remaining : 8
----------------------------------------------------------------------------------------------------------
2016-02-26 14:39:17 +0000 | [Call made by:	User Timeline]
2016-02-26 14:39:17 +0000 | [X-RateLimit		]
2016-02-26 14:39:17 +0000 | 			x-rate-limit-remaining : 173
----------------------------------------------------------------------------------------------------------
2016-02-26 14:39:17 +0000 | [Call made by:	Get Messages]
2016-02-26 14:39:17 +0000 | [X-RateLimit		]
2016-02-26 14:39:17 +0000 | 			x-rate-limit-remaining : 8
----------------------------------------------------------------------------------------------------------
2016-02-26 14:39:18 +0000 | [Call made by:	Get Message Replies]
2016-02-26 14:39:18 +0000 | [X-RateLimit		]
2016-02-26 14:39:18 +0000 | 			x-rate-limit-remaining : 8
2016-02-26 14:39:29 +0000 | Manual search by account finished. Account id:a2Cb0000000gqkVEAQ, Search Results: [Cases = 0, Contacts = 0, Conversations = 179, Leads = 0, Person Accounts = 0]
----------------------------------------------------------------------------------------------------------
----------------------------------------------------------------------------------------------------------
2016-02-26 14:38:59 +0000 | [Call made by:	User Replies]
2016-02-26 14:38:59 +0000 | [X-RateLimit		]
2016-02-26 14:38:59 +0000 | 			x-rate-limit-remaining : 9
----------------------------------------------------------------------------------------------------------
2016-02-26 14:39:00 +0000 | [Call made by:	User Timeline]
2016-02-26 14:39:00 +0000 | [X-RateLimit		]
2016-02-26 14:39:00 +0000 | 			x-rate-limit-remaining : 174
----------------------------------------------------------------------------------------------------------
2016-02-26 14:39:00 +0000 | [Call made by:	Get Messages]
2016-02-26 14:39:00 +0000 | [X-RateLimit		]
2016-02-26 14:39:00 +0000 | 			x-rate-limit-remaining : 9
----------------------------------------------------------------------------------------------------------
2016-02-26 14:39:01 +0000 | [Call made by:	Get Message Replies]
2016-02-26 14:39:01 +0000 | [X-RateLimit		]
2016-02-26 14:39:01 +0000 | 			x-rate-limit-remaining : 9
2016-02-26 14:39:14 +0000 | Manual search by account finished. Account id:a2Cb0000000gqkVEAQ, Search Results: [Cases = 0, Contacts = 0, Conversations = 177, Leads = 0, Person Accounts = 0]
----------------------------------------------------------------------------------------------------------
----------------------------------------------------------------------------------------------------------
2016-02-26 14:38:43 +0000 | [Call made by:	User Replies]
2016-02-26 14:38:43 +0000 | [X-RateLimit		]
2016-02-26 14:38:43 +0000 | 			x-rate-limit-remaining : 10
----------------------------------------------------------------------------------------------------------
2016-02-26 14:38:44 +0000 | [Call made by:	User Timeline]
2016-02-26 14:38:44 +0000 | [X-RateLimit		]
2016-02-26 14:38:44 +0000 | 			x-rate-limit-remaining : 175
----------------------------------------------------------------------------------------------------------
2016-02-26 14:38:44 +0000 | [Call made by:	Get Messages]
2016-02-26 14:38:44 +0000 | [X-RateLimit		]
2016-02-26 14:38:44 +0000 | 			x-rate-limit-remaining : 10
----------------------------------------------------------------------------------------------------------
2016-02-26 14:38:45 +0000 | [Call made by:	Get Message Replies]
2016-02-26 14:38:45 +0000 | [X-RateLimit		]
2016-02-26 14:38:45 +0000 | 			x-rate-limit-remaining : 10
2016-02-26 14:38:56 +0000 | Manual search by account finished. Account id:a2Cb0000000gqkVEAQ, Search Results: [Cases = 0, Contacts = 0, Conversations = 185, Leads = 0, Person Accounts = 0]
----------------------------------------------------------------------------------------------------------
----------------------------------------------------------------------------------------------------------
2016-02-26 14:38:28 +0000 | [Call made by:	User Replies]
2016-02-26 14:38:28 +0000 | [X-RateLimit		]
2016-02-26 14:38:28 +0000 | 			x-rate-limit-remaining : 11
----------------------------------------------------------------------------------------------------------
2016-02-26 14:38:29 +0000 | [Call made by:	User Timeline]
2016-02-26 14:38:29 +0000 | [X-RateLimit		]
2016-02-26 14:38:29 +0000 | 			x-rate-limit-remaining : 176
----------------------------------------------------------------------------------------------------------
2016-02-26 14:38:30 +0000 | [Call made by:	Get Messages]
2016-02-26 14:38:30 +0000 | [X-RateLimit		]
2016-02-26 14:38:30 +0000 | 			x-rate-limit-remaining : 11
----------------------------------------------------------------------------------------------------------
2016-02-26 14:38:31 +0000 | [Call made by:	Get Message Replies]
2016-02-26 14:38:31 +0000 | [X-RateLimit		]
2016-02-26 14:38:31 +0000 | 			x-rate-limit-remaining : 11
2016-02-26 14:38:41 +0000 | Manual search by account finished. Account id:a2Cb0000000gqkVEAQ, Search Results: [Cases = 0, Contacts = 0, Conversations = 139, Leads = 0, Person Accounts = 0]
----------------------------------------------------------------------------------------------------------
----------------------------------------------------------------------------------------------------------
2016-02-26 14:38:12 +0000 | [Call made by:	User Replies]
2016-02-26 14:38:12 +0000 | [X-RateLimit		]
2016-02-26 14:38:12 +0000 | 			x-rate-limit-remaining : 12
----------------------------------------------------------------------------------------------------------
2016-02-26 14:38:13 +0000 | [Call made by:	User Timeline]
2016-02-26 14:38:13 +0000 | [X-RateLimit		]
2016-02-26 14:38:13 +0000 | 			x-rate-limit-remaining : 177
----------------------------------------------------------------------------------------------------------
2016-02-26 14:38:13 +0000 | [Call made by:	Get Messages]
2016-02-26 14:38:13 +0000 | [X-RateLimit		]
2016-02-26 14:38:14 +0000 | 			x-rate-limit-remaining : 12
----------------------------------------------------------------------------------------------------------
2016-02-26 14:38:14 +0000 | [Call made by:	Get Message Replies]
2016-02-26 14:38:14 +0000 | [X-RateLimit		]
2016-02-26 14:38:14 +0000 | 			x-rate-limit-remaining : 12
2016-02-26 14:38:26 +0000 | Manual search by account finished. Account id:a2Cb0000000gqkVEAQ, Search Results: [Cases = 0, Contacts = 0, Conversations = 232, Leads = 0, Person Accounts = 0]
----------------------------------------------------------------------------------------------------------
----------------------------------------------------------------------------------------------------------
2016-02-26 14:37:53 +0000 | [Call made by:	User Replies]
2016-02-26 14:37:53 +0000 | [X-RateLimit		]
2016-02-26 14:37:53 +0000 | 			x-rate-limit-remaining : 13
----------------------------------------------------------------------------------------------------------
2016-02-26 14:37:54 +0000 | [Call made by:	User Timeline]
2016-02-26 14:37:54 +0000 | [X-RateLimit		]
2016-02-26 14:37:54 +0000 | 			x-rate-limit-remaining : 178
----------------------------------------------------------------------------------------------------------
2016-02-26 14:37:55 +0000 | [Call made by:	Get Messages]
2016-02-26 14:37:55 +0000 | [X-RateLimit		]
2016-02-26 14:37:55 +0000 | 			x-rate-limit-remaining : 13
----------------------------------------------------------------------------------------------------------
2016-02-26 14:37:56 +0000 | [Call made by:	Get Message Replies]
2016-02-26 14:37:56 +0000 | [X-RateLimit		]
2016-02-26 14:37:56 +0000 | 			x-rate-limit-remaining : 13
2016-02-26 14:38:10 +0000 | Manual search by account finished. Account id:a2Cb0000000gqkVEAQ, Search Results: [Cases = 0, Contacts = 0, Conversations = 293, Leads = 0, Person Accounts = 0]
----------------------------------------------------------------------------------------------------------
----------------------------------------------------------------------------------------------------------
2016-02-26 14:37:31 +0000 | [Call made by:	User Replies]
2016-02-26 14:37:31 +0000 | [X-RateLimit		]
2016-02-26 14:37:31 +0000 | 			x-rate-limit-remaining : 14
----------------------------------------------------------------------------------------------------------
2016-02-26 14:37:32 +0000 | [Call made by:	User Timeline]
2016-02-26 14:37:32 +0000 | [X-RateLimit		]
2016-02-26 14:37:32 +0000 | 			x-rate-limit-remaining : 179
----------------------------------------------------------------------------------------------------------
2016-02-26 14:37:33 +0000 | [Call made by:	Get Messages]
2016-02-26 14:37:33 +0000 | [X-RateLimit		]
2016-02-26 14:37:33 +0000 | 			x-rate-limit-remaining : 14
----------------------------------------------------------------------------------------------------------
2016-02-26 14:37:34 +0000 | [Call made by:	Get Message Replies]
2016-02-26 14:37:34 +0000 | [X-RateLimit		]
2016-02-26 14:37:34 +0000 | 			x-rate-limit-remaining : 14
2016-02-26 14:37:51 +0000 | Manual search by account finished. Account id:a2Cb0000000gqkVEAQ, Search Results: [Cases = 0, Contacts = 0, Conversations = 388, Leads = 0, Person Accounts = 0]
